mlp_v1/negative_test_v2/wave.vcd
$date
	Fri Apr 11 11:01:51 2025
$end
$version
	Icarus Verilog
$end
$timescale
	1ps
$end
$scope module top_tb $end
$scope module uut $end
$var wire 1 ! clk $end
$var wire 16 " neuron_val_2 [15:0] $end
$var wire 1 # reset $end
$var wire 1 $ write_neuron_3_2 $end
$var wire 1 % write_neuron_4 $end
$var wire 1 & write_neuron_3 $end
$var wire 1 ' write_neuron_2 $end
$var wire 1 ( write_neuron_1 $end
$var wire 8 ) weight_val_3 [7:0] $end
$var wire 8 * weight_val_2 [7:0] $end
$var wire 16 + weight_addr_2 [15:0] $end
$var wire 16 , weight_addr_1 [15:0] $end
$var wire 1 - reset_mult_acc_3_2 $end
$var wire 1 . reset_mult_acc_3_1 $end
$var wire 1 / reset_mult_acc_2_2 $end
$var wire 1 0 reset_mult_acc_2_1 $end
$var wire 1 1 reset_mult_acc_1 $end
$var wire 12 2 out_neuron_addr_4 [11:0] $end
$var wire 12 3 out_neuron_addr_3_2 [11:0] $end
$var wire 12 4 out_neuron_addr_3_1 [11:0] $end
$var wire 12 5 out_neuron_addr_2_2 [11:0] $end
$var wire 12 6 out_neuron_addr_2_1 [11:0] $end
$var wire 12 7 out_neuron_addr_1 [11:0] $end
$var wire 16 8 out_4 [15:0] $end
$var wire 16 9 out_3 [15:0] $end
$var wire 16 : out [15:0] $end
$var wire 16 ; neuron_val_3 [15:0] $end
$var wire 12 < neuron_addr_2 [11:0] $end
$var wire 12 = neuron_addr_1 [11:0] $end
$var wire 16 > mult_out_3 [15:0] $end
$var wire 1 ? finished $end
$var wire 1 @ done_4 $end
$var wire 1 A done_3 $end
$var wire 1 B done_2 $end
$var wire 1 C done_1 $end
$var wire 8 D bias_val_3 [7:0] $end
$var wire 8 E bias_val_2 [7:0] $end
$scope module b1 $end
$var wire 1 ! clk $end
$var wire 1 # reset $end
$var wire 1 ( write_neuron_1 $end
$var wire 16 F weight_addr_1 [15:0] $end
$var wire 1 1 reset_mult_acc_1 $end
$var wire 12 G out_neuron_addr_1 [11:0] $end
$var wire 12 H neuron_addr_1 [11:0] $end
$var wire 1 C done_1 $end
$var reg 1 B done_2 $end
$var reg 12 I neuron_addr_2 [11:0] $end
$var reg 12 J out_neuron_addr_2 [11:0] $end
$var reg 1 0 reset_mult_acc_2 $end
$var reg 16 K weight_addr_2 [15:0] $end
$var reg 1 ' write_neuron_2 $end
$upscope $end
$scope module b2 $end
$var wire 1 ! clk $end
$var wire 1 B done_2 $end
$var wire 16 L neuron_val_2 [15:0] $end
$var wire 1 # reset $end
$var wire 1 ' write_neuron_2 $end
$var wire 8 M weight_val_2 [7:0] $end
$var wire 1 / reset_mult_acc_2 $end
$var wire 12 N out_neuron_addr_2 [11:0] $end
$var wire 8 O bias_val_2 [7:0] $end
$var reg 8 P bias_val_3 [7:0] $end
$var reg 1 A done_3 $end
$var reg 16 Q neuron_val_3 [15:0] $end
$var reg 12 R out_neuron_addr_3 [11:0] $end
$var reg 1 . reset_mult_acc_3 $end
$var reg 8 S weight_val_3 [7:0] $end
$var reg 1 & write_neuron_3 $end
$upscope $end
$scope module b3 $end
$var wire 1 ! clk $end
$var wire 1 A done_3 $end
$var wire 1 # reset $end
$var wire 1 $ write_neuron_3 $end
$var wire 12 T out_neuron_addr_3 [11:0] $end
$var wire 16 U out_3 [15:0] $end
$var reg 1 @ done_4 $end
$var reg 16 V out_4 [15:0] $end
$var reg 12 W out_neuron_addr_4 [11:0] $end
$var reg 1 % write_neuron_4 $end
$upscope $end
$scope module bm $end
$var wire 1 ! clk $end
$var wire 16 X input_addr [15:0] $end
$var wire 1 # reset $end
$var wire 6 Y bias_addr [5:0] $end
$var reg 8 Z bias_val [7:0] $end
$upscope $end
$scope module cu $end
$var wire 1 ! clk $end
$var wire 1 # reset $end
$var parameter 32 [ layers $end
$var reg 1 C done $end
$var reg 12 \ input_neuron_addr [11:0] $end
$var reg 16 ] input_weight_addr [15:0] $end
$var reg 2 ^ layer_ptr [1:0] $end
$var reg 4 _ neuron_ptr [3:0] $end
$var reg 12 ` output_neuron_addr [11:0] $end
$var reg 1 1 reset_mult_acc $end
$var reg 10 a weight_ptr [9:0] $end
$var reg 1 ( write_neuron $end
$upscope $end
$scope module fu $end
$var wire 1 ! clk $end
$var wire 12 b input_addr [11:0] $end
$var wire 1 # reset $end
$var wire 1 - write_enable $end
$var wire 12 c output_addr [11:0] $end
$var wire 16 d original_data [15:0] $end
$var wire 16 e forwarded_data [15:0] $end
$var reg 1 f newval $end
$var reg 16 g out [15:0] $end
$var reg 12 h prev_input_addr [11:0] $end
$upscope $end
$scope module mb1 $end
$var wire 1 ! clk $end
$var wire 12 i out_neuron_addr_in [11:0] $end
$var wire 1 # reset $end
$var wire 1 0 reset_mult_acc_in $end
$var reg 12 j out_neuron_addr_out [11:0] $end
$var reg 1 / reset_mult_acc_out $end
$upscope $end
$scope module mb2 $end
$var wire 1 ! clk $end
$var wire 12 k out_neuron_addr_in [11:0] $end
$var wire 1 # reset $end
$var wire 1 . reset_mult_acc_in $end
$var reg 12 l out_neuron_addr_out [11:0] $end
$var reg 1 - reset_mult_acc_out $end
$upscope $end
$scope module mu $end
$var wire 8 m bias [7:0] $end
$var wire 1 ! clk $end
$var wire 16 n op1 [15:0] $end
$var wire 8 o op2 [7:0] $end
$var wire 1 p reset $end
$var reg 16 q out [15:0] $end
$var reg 16 r product [15:0] $end
$var reg 16 s sum [15:0] $end
$upscope $end
$scope module nm $end
$var wire 1 ! clk $end
$var wire 12 t input_addr [11:0] $end
$var wire 12 u output_addr [11:0] $end
$var wire 1 # reset $end
$var wire 1 - write_enable $end
$var wire 16 v data [15:0] $end
$var reg 16 w neuron_val [15:0] $end
$upscope $end
$scope module ru $end
$var wire 16 x in [15:0] $end
$var reg 16 y out [15:0] $end
$upscope $end
$scope module su $end
$var wire 1 ! clk $end
$var wire 1 A done $end
$var wire 16 z in [15:0] $end
$var reg 1 ? finished $end
$var reg 1 { prev_done $end
$var reg 16 | result [15:0] $end
$upscope $end
$scope module wm $end
$var wire 1 ! clk $end
$var wire 16 } input_addr [15:0] $end
$var wire 1 # reset $end
$var reg 8 ~ weight_val [7:0] $end
$upscope $end
$upscope $end
$upscope $end
$enddefinitions $end
$comment Show the parameter values. $end
$dumpall
b100 [
$end
#0
$dumpvars
b0 ~
b0 }
b0 |
x{
b0 z
b0 y
b0 x
b0 w
b0 v
b0 u
b0 t
b0 s
b0 r
b0 q
1p
b0 o
b0 n
b0 m
b0 l
b0 k
b0 j
b0 i
b0 h
b0 g
0f
b0 e
b0 d
b0 c
b0 b
b0 a
b0 `
b0 _
b0 ^
b0 ]
b0 \
b0 Z
b0 Y
b0 X
b0 W
b0 V
b0 U
b0 T
b0 S
b0 R
b0 Q
b0 P
b0 O
b0 N
b0 M
b0 L
b0 K
b0 J
b0 I
b0 H
b0 G
b0 F
b0 E
b0 D
0C
0B
0A
0@
0?
b0 >
b0 =
b0 <
b0 ;
b0 :
b0 9
b0 8
b0 7
b0 6
b0 5
b0 4
b0 3
b0 2
11
00
0/
0.
0-
b0 ,
b0 +
b0 *
b0 )
0(
0'
0&
0%
z$
1#
b0 "
1!
$end
#10000
0!
#20000
z%
10
0{
b1010000 E
b1010000 O
b1010000 Z
b11111101 *
b11111101 M
b11111101 ~
b0xxx "
b0xxx L
b111 w
b10000000000 7
b10000000000 G
b10000000000 `
01
b1 a
0p
1!
0#
#30000
0!
#40000
b1 ,
b1 F
b1 ]
b1 =
b1 H
b1 \
b10 a
1/
b10000000000 6
b10000000000 J
b10000000000 i
00
b1010000 D
b1010000 P
b1010000 m
b11111101 )
b11111101 S
b11111101 o
b0xxx ;
b0xxx Q
b0xxx n
1!
#50000
0!
#60000
1.
b1 +
b1 K
b1 X
b1 }
b1 <
b1 I
b1 b
b1 t
b10000000000 5
b10000000000 N
b10000000000 j
0/
b10 ,
b10 F
b10 ]
b10 =
b10 H
b10 \
b11 a
bx 9
bx U
bx d
bx e
bx v
bx y
bx >
bx q
bx x
bx s
bx r
1!
#70000
0!
#80000
1p
b11 ,
b11 F
b11 ]
b11 =
b11 H
b11 \
11
1(
b0 a
b1 _
b1 h
bx g
bx "
bx L
b11 w
b1110 *
b1110 M
b1110 ~
1-
b10 +
b10 K
b10 X
b10 }
b10 <
b10 I
b10 b
b10 t
b10000000000 4
b10000000000 R
b10000000000 k
0.
bx 8
bx V
bx z
1!
#90000
0!
#100000
0p
b1110 )
b1110 S
b1110 o
bx ;
bx Q
bx n
1'
10
b11 +
b11 K
b11 X
b11 }
b11 <
b11 I
b11 b
b11 t
b10000000000 3
b10000000000 T
b10000000000 c
b10000000000 l
b10000000000 u
0-
b11 *
b11 M
b11 ~
b1111111111111000 w
b10 h
b10000000000 ,
b10000000000 F
b10000000000 ]
b10000000001 7
b10000000001 G
b10000000001 `
b0 =
b0 H
b0 \
01
0(
b1 a
1!
#110000
0!
#120000
b1 Y
b10000000001 ,
b10000000001 F
b10000000001 ]
b1 =
b1 H
b1 \
b10 a
b11 h
b101 w
b11111000 *
b11111000 M
b11111000 ~
1/
0'
b10000000001 6
b10000000001 J
b10000000001 i
00
b10000000000 +
b10000000000 K
b10000000000 X
b10000000000 }
b0 <
b0 I
b0 b
b0 t
1&
b11 )
b11 S
b11 o
b10000000000 2
b10000000000 W
1!
#130000
0!
#140000
0&
1.
b11111000 )
b11111000 S
b11111000 o
b10000000001 +
b10000000001 K
b10000000001 X
b10000000001 }
b1 <
b1 I
b1 b
b1 t
b10000000001 5
b10000000001 N
b10000000001 j
0/
b10100000 E
b10100000 O
b10100000 Z
b100 *
b100 M
b100 ~
bx w
b0 h
b10000000010 ,
b10000000010 F
b10000000010 ]
b10 =
b10 H
b10 \
b11 a
1!
#150000
0!
#160000
1p
b10000000011 ,
b10000000011 F
b10000000011 ]
b11 =
b11 H
b11 \
11
1(
b0 a
b0 _
b1 ^
b1 h
b11 w
b11111010 *
b11111010 M
b11111010 ~
1-
b10000000010 +
b10000000010 K
b10000000010 X
b10000000010 }
b10 <
b10 I
b10 b
b10 t
b10000000001 4
b10000000001 R
b10000000001 k
0.
b10100000 D
b10100000 P
b10100000 m
b100 )
b100 S
b100 o
1!
#170000
0!
#180000
0p
b11111010 )
b11111010 S
b11111010 o
1'
10
b10000000011 +
b10000000011 K
b10000000011 X
b10000000011 }
b11 <
b11 I
b11 b
b11 t
b10000000001 3
b10000000001 T
b10000000001 c
b10000000001 l
b10000000001 u
0-
b10000 *
b10000 M
b10000 ~
b1111111111111000 w
b10 h
b100000000000000 ,
b100000000000000 F
b100000000000000 ]
b100000000000 7
b100000000000 G
b100000000000 `
b10000000000 =
b10000000000 H
b10000000000 \
01
0(
b1 a
1!
#190000
0!
#200000
b10000 Y
b100000000000001 ,
b100000000000001 F
b100000000000001 ]
b10000000001 =
b10000000001 H
b10000000001 \
11
1(
b0 a
b1 _
b11 h
b101 w
b1000 *
b1000 M
b1000 ~
1/
0'
b100000000000 6
b100000000000 J
b100000000000 i
00
b100000000000000 +
b100000000000000 K
b100000000000000 X
b100000000000000 }
b10000000000 <
b10000000000 I
b10000000000 b
b10000000000 t
1&
b10000 )
b10000 S
b10000 o
b10000000001 2
b10000000001 W
1!
#210000
0!
#220000
0&
1.
b1000 )
b1000 S
b1000 o
1'
10
b100000000000001 +
b100000000000001 K
b100000000000001 X
b100000000000001 }
b10000000001 <
b10000000001 I
b10000000001 b
b10000000001 t
b100000000000 5
b100000000000 N
b100000000000 j
0/
b11110010 E
b11110010 O
b11110010 Z
b11111100 *
b11111100 M
b11111100 ~
bx w
b10000000000 h
b100010000000000 ,
b100010000000000 F
b100010000000000 ]
b100000000001 7
b100000000001 G
b100000000001 `
b10000000000 =
b10000000000 H
b10000000000 \
01
0(
b1 a
1!
#230000
0!
#240000
1p
b10001 Y
b100010000000001 ,
b100010000000001 F
b100010000000001 ]
b10000000001 =
b10000000001 H
b10000000001 \
11
1(
b0 a
b0 _
b10 ^
b10000000001 h
b11111011 *
b11111011 M
b11111011 ~
1/
1-
0'
b100000000001 6
b100000000001 J
b100000000001 i
00
b100010000000000 +
b100010000000000 K
b100010000000000 X
b100010000000000 }
b10000000000 <
b10000000000 I
b10000000000 b
b10000000000 t
1&
b100000000000 4
b100000000000 R
b100000000000 k
0.
b11110010 D
b11110010 P
b11110010 m
b11111100 )
b11111100 S
b11111100 o
1!
#250000
0!
#260000
0p
0&
1.
b11111011 )
b11111011 S
b11111011 o
1'
10
b100010000000001 +
b100010000000001 K
b100010000000001 X
b100010000000001 }
b10000000001 <
b10000000001 I
b10000000001 b
b10000000001 t
b100000000000 3
b100000000000 T
b100000000000 c
b100000000000 l
b100000000000 u
0-
b100000000001 5
b100000000001 N
b100000000001 j
0/
b1001001 E
b1001001 O
b1001001 Z
b110 *
b110 M
b110 ~
b10000000000 h
1f
b1000000000000000 ,
b1000000000000000 F
b1000000000000000 ]
b110000000000 7
b110000000000 G
b110000000000 `
b100000000000 =
b100000000000 H
b100000000000 \
01
0(
b1 a
1!
#270000
0!
#280000
1p
b100000 Y
b1000000000000001 ,
b1000000000000001 F
b1000000000000001 ]
b100000000001 =
b100000000001 H
b100000000001 \
11
1(
b0 a
1C
b10000000001 h
0f
b10 *
b10 M
b10 ~
1/
1-
0'
b110000000000 6
b110000000000 J
b110000000000 i
00
b1000000000000000 +
b1000000000000000 K
b1000000000000000 X
b1000000000000000 }
b100000000000 <
b100000000000 I
b100000000000 b
b100000000000 t
1&
b100000000001 4
b100000000001 R
b100000000001 k
0.
b1001001 D
b1001001 P
b1001001 m
b110 )
b110 S
b110 o
b100000000000 2
b100000000000 W
1!
#290000
0!
#300000
0p
0&
1.
b10 )
b10 S
b10 o
1'
10
b1000000000000001 +
b1000000000000001 K
b1000000000000001 X
b1000000000000001 }
b100000000001 <
b100000000001 I
b100000000001 b
b100000000001 t
1B
b100000000001 3
b100000000001 T
b100000000001 c
b100000000001 l
b100000000001 u
0-
b110000000000 5
b110000000000 N
b110000000000 j
0/
b1110000 E
b1110000 O
b1110000 Z
b11 *
b11 M
b11 ~
b100000000000 h
b1000000000000000 ,
b1000000000000000 F
b1000000000000000 ]
b100000000000 =
b100000000000 H
b100000000000 \
01
0(
b1 a
1!
#310000
0!
#320000
1p
b1000000000000001 ,
b1000000000000001 F
b1000000000000001 ]
b100000000001 =
b100000000001 H
b100000000001 \
11
1(
b0 a
b100000000001 h
b10 *
b10 M
b10 ~
1/
1-
0'
00
b1000000000000000 +
b1000000000000000 K
b1000000000000000 X
b1000000000000000 }
b100000000000 <
b100000000000 I
b100000000000 b
b100000000000 t
1&
b110000000000 4
b110000000000 R
b110000000000 k
0.
b1110000 D
b1110000 P
b1110000 m
b11 )
b11 S
b11 o
1A
b100000000001 2
b100000000001 W
1!
#330000
0!
#340000
0p
1@
0&
1.
b10 )
b10 S
b10 o
1'
10
b1000000000000001 +
b1000000000000001 K
b1000000000000001 X
b1000000000000001 }
b100000000001 <
b100000000001 I
b100000000001 b
b100000000001 t
b110000000000 3
b110000000000 T
b110000000000 c
b110000000000 l
b110000000000 u
0-
0/
bx :
bx |
1?
1{
b11 *
b11 M
b11 ~
b100000000000 h
1f
b1000000000000000 ,
b1000000000000000 F
b1000000000000000 ]
b100000000000 =
b100000000000 H
b100000000000 \
01
0(
b1 a
1!
#350000
0!
#360000
1p
b1000000000000001 ,
b1000000000000001 F
b1000000000000001 ]
b100000000001 =
b100000000001 H
b100000000001 \
11
1(
b0 a
b100000000001 h
0f
b10 *
b10 M
b10 ~
0?
1/
1-
0'
00
b1000000000000000 +
b1000000000000000 K
b1000000000000000 X
b1000000000000000 }
b100000000000 <
b100000000000 I
b100000000000 b
b100000000000 t
1&
0.
b11 )
b11 S
b11 o
b110000000000 2
b110000000000 W
1!
#370000
0!
#380000
0p
0&
1.
b10 )
b10 S
b10 o
1'
10
b1000000000000001 +
b1000000000000001 K
b1000000000000001 X
b1000000000000001 }
b100000000001 <
b100000000001 I
b100000000001 b
b100000000001 t
0-
0/
b11 *
b11 M
b11 ~
b100000000000 h
b1000000000000000 ,
b1000000000000000 F
b1000000000000000 ]
b100000000000 =
b100000000000 H
b100000000000 \
01
0(
b1 a
1!
#390000
0!
#400000
1p
b1000000000000001 ,
b1000000000000001 F
b1000000000000001 ]
b100000000001 =
b100000000001 H
b100000000001 \
11
1(
b0 a
b100000000001 h
b10 *
b10 M
b10 ~
1/
1-
0'
00
b1000000000000000 +
b1000000000000000 K
b1000000000000000 X
b1000000000000000 }
b100000000000 <
b100000000000 I
b100000000000 b
b100000000000 t
1&
0.
b11 )
b11 S
b11 o
1!
#410000
0!
#420000
b0 Y
0%
b0 2
b0 W
b0 8
b0 V
b0 z
0@
0&
b0 4
b0 R
b0 k
b0 D
b0 P
b0 m
b0 )
b0 S
b0 o
b0 ;
b0 Q
b0 n
0A
b0 6
b0 J
b0 i
b0 +
b0 K
b0 X
b0 }
b0 <
b0 I
b0 b
b0 t
0B
b0 3
b0 T
b0 c
b0 l
b0 u
0-
b0 5
b0 N
b0 j
0/
b0 E
b0 O
b0 Z
b0 *
b0 M
b0 ~
b0 "
b0 L
b0 w
b0 h
b0 g
0(
0C
b0 ,
b0 F
b0 ]
b0 7
b0 G
b0 `
b0 =
b0 H
b0 \
b0 ^
1!
1#
#430000
0!
#440000
b10000000000 7
b10000000000 G
b10000000000 `
01
b1 a
bx g
bx "
bx L
bx w
b11111101 *
b11111101 M
b11111101 ~
b1010000 E
b1010000 O
b1010000 Z
0{
10
z%
bx 8
bx V
bx z
b0 r
0p
1!
0#
#450000
0!
#460000
b1010000 D
b1010000 P
b1010000 m
b11111101 )
b11111101 S
b11111101 o
bx ;
bx Q
bx n
b10000000000 6
b10000000000 J
b10000000000 i
00
1/
b1 ,
b1 F
b1 ]
b1 =
b1 H
b1 \
b10 a
1!
#470000
0!
#480000
b10 ,
b10 F
b10 ]
b10 =
b10 H
b10 \
b11 a
b10000000000 5
b10000000000 N
b10000000000 j
0/
b1 +
b1 K
b1 X
b1 }
b1 <
b1 I
b1 b
b1 t
1.
bx r
1!
#490000
0!
#500000
1p
b10000000000 4
b10000000000 R
b10000000000 k
0.
b10 +
b10 K
b10 X
b10 }
b10 <
b10 I
b10 b
b10 t
1-
b1110 *
b1110 M
b1110 ~
b11 w
b1 h
b11 ,
b11 F
b11 ]
b11 =
b11 H
b11 \
11
1(
b0 a
b1 _
1!
#510000
0!
#520000
0p
b10000000000 ,
b10000000000 F
b10000000000 ]
b10000000001 7
b10000000001 G
b10000000001 `
b0 =
b0 H
b0 \
01
0(
b1 a
b10 h
b1111111111111000 w
b11 *
b11 M
b11 ~
b10000000000 3
b10000000000 T
b10000000000 c
b10000000000 l
b10000000000 u
0-
1'
10
b11 +
b11 K
b11 X
b11 }
b11 <
b11 I
b11 b
b11 t
b1110 )
b1110 S
b1110 o
1!
#530000
0!
#540000
b1 Y
b10000000000 2
b10000000000 W
1&
b11 )
b11 S
b11 o
0'
b10000000001 6
b10000000001 J
b10000000001 i
00
b10000000000 +
b10000000000 K
b10000000000 X
b10000000000 }
b0 <
b0 I
b0 b
b0 t
1/
b11111000 *
b11111000 M
b11111000 ~
b101 w
b11 h
b10000000001 ,
b10000000001 F
b10000000001 ]
b1 =
b1 H
b1 \
b10 a
1!
#550000
0!
#560000
b10000000010 ,
b10000000010 F
b10000000010 ]
b10 =
b10 H
b10 \
b11 a
b0 h
bx w
b100 *
b100 M
b100 ~
b10100000 E
b10100000 O
b10100000 Z
b10000000001 5
b10000000001 N
b10000000001 j
0/
b10000000001 +
b10000000001 K
b10000000001 X
b10000000001 }
b1 <
b1 I
b1 b
b1 t
0&
1.
b11111000 )
b11111000 S
b11111000 o
1!
#570000
0!
#580000
1p
b10000000001 4
b10000000001 R
b10000000001 k
0.
b10100000 D
b10100000 P
b10100000 m
b100 )
b100 S
b100 o
b10000000010 +
b10000000010 K
b10000000010 X
b10000000010 }
b10 <
b10 I
b10 b
b10 t
1-
b11111010 *
b11111010 M
b11111010 ~
b11 w
b1 h
b10000000011 ,
b10000000011 F
b10000000011 ]
b11 =
b11 H
b11 \
11
1(
b0 a
b0 _
b1 ^
1!
#590000
0!
#600000
0p
b100000000000000 ,
b100000000000000 F
b100000000000000 ]
b100000000000 7
b100000000000 G
b100000000000 `
b10000000000 =
b10000000000 H
b10000000000 \
01
0(
b1 a
b10 h
b1111111111111000 w
b10000 *
b10000 M
b10000 ~
b10000000001 3
b10000000001 T
b10000000001 c
b10000000001 l
b10000000001 u
0-
1'
10
b10000000011 +
b10000000011 K
b10000000011 X
b10000000011 }
b11 <
b11 I
b11 b
b11 t
b11111010 )
b11111010 S
b11111010 o
1!
#610000
0!
#620000
b10000 Y
b10000000001 2
b10000000001 W
1&
b10000 )
b10000 S
b10000 o
0'
b100000000000 6
b100000000000 J
b100000000000 i
00
b100000000000000 +
b100000000000000 K
b100000000000000 X
b100000000000000 }
b10000000000 <
b10000000000 I
b10000000000 b
b10000000000 t
1/
b1000 *
b1000 M
b1000 ~
b101 w
b11 h
b100000000000001 ,
b100000000000001 F
b100000000000001 ]
b10000000001 =
b10000000001 H
b10000000001 \
11
1(
b0 a
b1 _
1!
#630000
0!
#640000
b100010000000000 ,
b100010000000000 F
b100010000000000 ]
b100000000001 7
b100000000001 G
b100000000001 `
b10000000000 =
b10000000000 H
b10000000000 \
01
0(
b1 a
b10000000000 h
bx w
b11111100 *
b11111100 M
b11111100 ~
b11110010 E
b11110010 O
b11110010 Z
b100000000000 5
b100000000000 N
b100000000000 j
0/
1'
10
b100000000000001 +
b100000000000001 K
b100000000000001 X
b100000000000001 }
b10000000001 <
b10000000001 I
b10000000001 b
b10000000001 t
0&
1.
b1000 )
b1000 S
b1000 o
1!
#650000
0!
#660000
b10001 Y
1p
1&
b100000000000 4
b100000000000 R
b100000000000 k
0.
b11110010 D
b11110010 P
b11110010 m
b11111100 )
b11111100 S
b11111100 o
0'
b100000000001 6
b100000000001 J
b100000000001 i
00
b100010000000000 +
b100010000000000 K
b100010000000000 X
b100010000000000 }
b10000000000 <
b10000000000 I
b10000000000 b
b10000000000 t
1-
1/
b11111011 *
b11111011 M
b11111011 ~
b10000000001 h
b100010000000001 ,
b100010000000001 F
b100010000000001 ]
b10000000001 =
b10000000001 H
b10000000001 \
11
1(
b0 a
b0 _
b10 ^
1!
#670000
0!
#680000
0p
b1000000000000000 ,
b1000000000000000 F
b1000000000000000 ]
b110000000000 7
b110000000000 G
b110000000000 `
b100000000000 =
b100000000000 H
b100000000000 \
01
0(
b1 a
b10000000000 h
1f
b110 *
b110 M
b110 ~
b1001001 E
b1001001 O
b1001001 Z
b100000000001 5
b100000000001 N
b100000000001 j
0/
b100000000000 3
b100000000000 T
b100000000000 c
b100000000000 l
b100000000000 u
0-
1'
10
b100010000000001 +
b100010000000001 K
b100010000000001 X
b100010000000001 }
b10000000001 <
b10000000001 I
b10000000001 b
b10000000001 t
0&
1.
b11111011 )
b11111011 S
b11111011 o
1!
#690000
0!
#700000
b100000 Y
1p
b100000000000 2
b100000000000 W
1&
b100000000001 4
b100000000001 R
b100000000001 k
0.
b1001001 D
b1001001 P
b1001001 m
b110 )
b110 S
b110 o
0'
b110000000000 6
b110000000000 J
b110000000000 i
00
b1000000000000000 +
b1000000000000000 K
b1000000000000000 X
b1000000000000000 }
b100000000000 <
b100000000000 I
b100000000000 b
b100000000000 t
1-
1/
b10 *
b10 M
b10 ~
b10000000001 h
0f
b1000000000000001 ,
b1000000000000001 F
b1000000000000001 ]
b100000000001 =
b100000000001 H
b100000000001 \
11
1(
b0 a
1C
1!
#710000
0!
#720000
0p
b1000000000000000 ,
b1000000000000000 F
b1000000000000000 ]
b100000000000 =
b100000000000 H
b100000000000 \
01
0(
b1 a
b100000000000 h
b11 *
b11 M
b11 ~
b1110000 E
b1110000 O
b1110000 Z
b110000000000 5
b110000000000 N
b110000000000 j
0/
b100000000001 3
b100000000001 T
b100000000001 c
b100000000001 l
b100000000001 u
0-
1'
10
b1000000000000001 +
b1000000000000001 K
b1000000000000001 X
b1000000000000001 }
b100000000001 <
b100000000001 I
b100000000001 b
b100000000001 t
1B
0&
1.
b10 )
b10 S
b10 o
1!
#730000
0!
#740000
1p
b100000000001 2
b100000000001 W
1&
b110000000000 4
b110000000000 R
b110000000000 k
0.
b1110000 D
b1110000 P
b1110000 m
b11 )
b11 S
b11 o
1A
0'
00
b1000000000000000 +
b1000000000000000 K
b1000000000000000 X
b1000000000000000 }
b100000000000 <
b100000000000 I
b100000000000 b
b100000000000 t
1-
1/
b10 *
b10 M
b10 ~
b100000000001 h
b1000000000000001 ,
b1000000000000001 F
b1000000000000001 ]
b100000000001 =
b100000000001 H
b100000000001 \
11
1(
b0 a
1!
#750000
0!
#760000
0p
b1000000000000000 ,
b1000000000000000 F
b1000000000000000 ]
b100000000000 =
b100000000000 H
b100000000000 \
01
0(
b1 a
b100000000000 h
1f
b11 *
b11 M
b11 ~
1?
1{
0/
b110000000000 3
b110000000000 T
b110000000000 c
b110000000000 l
b110000000000 u
0-
1'
10
b1000000000000001 +
b1000000000000001 K
b1000000000000001 X
b1000000000000001 }
b100000000001 <
b100000000001 I
b100000000001 b
b100000000001 t
0&
1.
b10 )
b10 S
b10 o
1@
1!
#770000
0!
#780000
1p
b110000000000 2
b110000000000 W
1&
0.
b11 )
b11 S
b11 o
0'
00
b1000000000000000 +
b1000000000000000 K
b1000000000000000 X
b1000000000000000 }
b100000000000 <
b100000000000 I
b100000000000 b
b100000000000 t
1-
1/
0?
b10 *
b10 M
b10 ~
b100000000001 h
0f
b1000000000000001 ,
b1000000000000001 F
b1000000000000001 ]
b100000000001 =
b100000000001 H
b100000000001 \
11
1(
b0 a
1!
#790000
0!
#800000
0p
b1000000000000000 ,
b1000000000000000 F
b1000000000000000 ]
b100000000000 =
b100000000000 H
b100000000000 \
01
0(
b1 a
b100000000000 h
b11 *
b11 M
b11 ~
0/
0-
1'
10
b1000000000000001 +
b1000000000000001 K
b1000000000000001 X
b1000000000000001 }
b100000000001 <
b100000000001 I
b100000000001 b
b100000000001 t
0&
1.
b10 )
b10 S
b10 o
1!
#810000
0!
#820000
1p
1&
0.
b11 )
b11 S
b11 o
0'
00
b1000000000000000 +
b1000000000000000 K
b1000000000000000 X
b1000000000000000 }
b100000000000 <
b100000000000 I
b100000000000 b
b100000000000 t
1-
1/
b10 *
b10 M
b10 ~
b100000000001 h
b1000000000000001 ,
b1000000000000001 F
b1000000000000001 ]
b100000000001 =
b100000000001 H
b100000000001 \
11
1(
b0 a
1!
#830000
0!
#840000
0p
b1000000000000000 ,
b1000000000000000 F
b1000000000000000 ]
b100000000000 =
b100000000000 H
b100000000000 \
01
0(
b1 a
b100000000000 h
b11 *
b11 M
b11 ~
0/
0-
1'
10
b1000000000000001 +
b1000000000000001 K
b1000000000000001 X
b1000000000000001 }
b100000000001 <
b100000000001 I
b100000000001 b
b100000000001 t
0&
1.
b10 )
b10 S
b10 o
1!
