mlp_v1/full_mlp/wave.vcd
$date
	Tue Apr 15 23:13:32 2025
$end
$version
	Icarus Verilog
$end
$timescale
	1ps
$end
$scope module top_tb $end
$scope module uut $end
$var wire 1 ! clk $end
$var wire 1 " reset $end
$var wire 1 # write_neuron_3 $end
$var wire 1 $ write_neuron_2 $end
$var wire 1 % write_neuron_1 $end
$var wire 8 & weight_val [7:0] $end
$var wire 16 ' weight_addr [15:0] $end
$var wire 16 ( ru_out [15:0] $end
$var wire 1 ) reset_mu_3 $end
$var wire 1 * reset_mu_2 $end
$var wire 1 + reset_mu_1 $end
$var wire 12 , out_neuron_addr_3 [11:0] $end
$var wire 12 - out_neuron_addr_2 [11:0] $end
$var wire 12 . out_neuron_addr_1 [11:0] $end
$var wire 16 / out [15:0] $end
$var wire 16 0 neuron_val [15:0] $end
$var wire 12 1 neuron_addr [11:0] $end
$var wire 16 2 mu_out [15:0] $end
$var wire 1 3 finished $end
$var wire 1 4 done_3 $end
$var wire 1 5 done_2 $end
$var wire 1 6 done_1 $end
$var wire 8 7 bias_val [7:0] $end
$scope module b1 $end
$var wire 1 ! clk $end
$var wire 1 " reset $end
$var wire 1 % write_neuron_in $end
$var wire 1 + reset_mu_in $end
$var wire 12 8 out_neuron_addr_in [11:0] $end
$var wire 1 6 done_in $end
$var reg 1 5 done_out $end
$var reg 12 9 out_neuron_addr_out [11:0] $end
$var reg 1 * reset_mu_out $end
$var reg 1 $ write_neuron_out $end
$upscope $end
$scope module b2 $end
$var wire 1 ! clk $end
$var wire 1 5 done_in $end
$var wire 12 : out_neuron_addr_in [11:0] $end
$var wire 1 " reset $end
$var wire 1 * reset_mu_in $end
$var wire 1 $ write_neuron_in $end
$var reg 1 4 done_out $end
$var reg 12 ; out_neuron_addr_out [11:0] $end
$var reg 1 ) reset_mu_out $end
$var reg 1 # write_neuron_out $end
$upscope $end
$scope module bm $end
$var wire 1 ! clk $end
$var wire 1 " reset $end
$var wire 16 < input_addr [15:0] $end
$var wire 7 = bias_addr [6:0] $end
$var reg 8 > bias_val [7:0] $end
$upscope $end
$scope module cu $end
$var wire 1 ! clk $end
$var wire 1 " reset $end
$var parameter 32 ? layers $end
$var reg 1 6 done $end
$var reg 12 @ input_neuron_addr [11:0] $end
$var reg 16 A input_weight_addr [15:0] $end
$var reg 2 B layer_ptr [1:0] $end
$var reg 5 C neuron_ptr [4:0] $end
$var reg 12 D output_neuron_addr [11:0] $end
$var reg 1 + reset_mult_acc $end
$var reg 9 E weight_ptr [8:0] $end
$var reg 1 % write_neuron $end
$upscope $end
$scope module mu $end
$var wire 8 F bias [7:0] $end
$var wire 1 ! clk $end
$var wire 1 G reset $end
$var wire 8 H op2 [7:0] $end
$var wire 16 I op1 [15:0] $end
$var reg 16 J out [15:0] $end
$var reg 16 K product [15:0] $end
$var reg 16 L sum [15:0] $end
$upscope $end
$scope module nm $end
$var wire 1 ! clk $end
$var wire 12 M input_addr [11:0] $end
$var wire 12 N output_addr [11:0] $end
$var wire 1 " reset $end
$var wire 1 # write_enable $end
$var wire 16 O data [15:0] $end
$var reg 16 P neuron_val [15:0] $end
$upscope $end
$scope module ru $end
$var wire 16 Q in [15:0] $end
$var reg 16 R out [15:0] $end
$upscope $end
$scope module su $end
$var wire 1 ! clk $end
$var wire 1 4 done $end
$var wire 16 S in [15:0] $end
$var wire 1 " reset $end
$var reg 1 3 finished $end
$var reg 1 T prev_done $end
$var reg 16 U result [15:0] $end
$upscope $end
$scope module wm $end
$var wire 1 ! clk $end
$var wire 16 V input_addr [15:0] $end
$var wire 1 " reset $end
$var reg 8 W weight_val [7:0] $end
$upscope $end
$upscope $end
$upscope $end
$enddefinitions $end
$comment Show the parameter values. $end
$dumpall
b100 ?
$end
#0
$dumpvars
b0 W
b0 V
b0 U
0T
bx S
bx R
bx Q
b0 P
bx O
b0 N
b0 M
bx L
bx K
bx J
b0 I
b0 H
1G
b0 F
b0 E
b0 D
b0 C
b0 B
b0 A
b0 @
b0 >
b0 =
b0 <
b0 ;
b0 :
b0 9
b0 8
b0 7
06
05
04
03
bx 2
b0 1
b0 0
b0 /
b0 .
b0 -
b0 ,
1+
0*
0)
bx (
b0 '
b0 &
0%
0$
0#
1"
1!
$end
#10000
0!
#20000
1*
b1 &
b1 H
b1 W
b1 0
b1 I
b1 P
b10000000000 .
b10000000000 8
b10000000000 D
0+
b1 E
b0 K
0G
1!
0"
#30000
0!
#40000
1G
b1 '
b1 <
b1 A
b1 V
b1 1
b1 @
b1 M
b10 E
b10000000000 -
b10000000000 9
b10000000000 :
0*
1)
b1 K
1!
#50000
0!
#60000
0G
b10000000000 ,
b10000000000 ;
b10000000000 N
0)
b0 &
b0 H
b0 W
b0 0
b0 I
b0 P
b10 '
b10 <
b10 A
b10 V
b10 1
b10 @
b10 M
b11 E
b1 (
b1 O
b1 R
b1 S
b1 2
b1 J
b1 Q
b1 L
1!
#70000
0!
#80000
b11 '
b11 <
b11 A
b11 V
b11 1
b11 @
b11 M
b100 E
b0 K
1!
#90000
0!
#100000
b100 '
b100 <
b100 A
b100 V
b100 1
b100 @
b100 M
b101 E
1!
#110000
0!
#120000
b101 '
b101 <
b101 A
b101 V
b101 1
b101 @
b101 M
b110 E
1!
#130000
0!
#140000
b110 '
b110 <
b110 A
b110 V
b110 1
b110 @
b110 M
b111 E
1!
#150000
0!
#160000
b111 '
b111 <
b111 A
b111 V
b111 1
b111 @
b111 M
b1000 E
1!
#170000
0!
#180000
b1000 '
b1000 <
b1000 A
b1000 V
b1000 1
b1000 @
b1000 M
b1001 E
1!
#190000
0!
#200000
b1001 '
b1001 <
b1001 A
b1001 V
b1001 1
b1001 @
b1001 M
b1010 E
1!
#210000
0!
#220000
b1010 '
b1010 <
b1010 A
b1010 V
b1010 1
b1010 @
b1010 M
b1011 E
1!
#230000
0!
#240000
b1011 '
b1011 <
b1011 A
b1011 V
b1011 1
b1011 @
b1011 M
b1100 E
1!
#250000
0!
#260000
b1100 '
b1100 <
b1100 A
b1100 V
b1100 1
b1100 @
b1100 M
b1101 E
1!
#270000
0!
#280000
b1101 '
b1101 <
b1101 A
b1101 V
b1101 1
b1101 @
b1101 M
b1110 E
1!
#290000
0!
#300000
b1110 '
b1110 <
b1110 A
b1110 V
b1110 1
b1110 @
b1110 M
b1111 E
1!
#310000
0!
#320000
b1111 '
b1111 <
b1111 A
b1111 V
b1111 1
b1111 @
b1111 M
b10000 E
1!
#330000
0!
#340000
b10000 '
b10000 <
b10000 A
b10000 V
b10000 1
b10000 @
b10000 M
b10001 E
1!
#350000
0!
#360000
b10001 '
b10001 <
b10001 A
b10001 V
b10001 1
b10001 @
b10001 M
b10010 E
1!
#370000
0!
#380000
b10010 '
b10010 <
b10010 A
b10010 V
b10010 1
b10010 @
b10010 M
b10011 E
1!
#390000
0!
#400000
b10011 '
b10011 <
b10011 A
b10011 V
b10011 1
b10011 @
b10011 M
b10100 E
1!
#410000
0!
#420000
b10100 '
b10100 <
b10100 A
b10100 V
b10100 1
b10100 @
b10100 M
b10101 E
1!
#430000
0!
#440000
b10101 '
b10101 <
b10101 A
b10101 V
b10101 1
b10101 @
b10101 M
b10110 E
1!
#450000
0!
#460000
b10110 '
b10110 <
b10110 A
b10110 V
b10110 1
b10110 @
b10110 M
b10111 E
1!
#470000
0!
#480000
b10111 '
b10111 <
b10111 A
b10111 V
b10111 1
b10111 @
b10111 M
b11000 E
1!
#490000
0!
#500000
b11000 '
b11000 <
b11000 A
b11000 V
b11000 1
b11000 @
b11000 M
b11001 E
1!
#510000
0!
#520000
b11001 '
b11001 <
b11001 A
b11001 V
b11001 1
b11001 @
b11001 M
b11010 E
1!
#530000
0!
#540000
b11010 '
b11010 <
b11010 A
b11010 V
b11010 1
b11010 @
b11010 M
b11011 E
1!
#550000
0!
#560000
b11011 '
b11011 <
b11011 A
b11011 V
b11011 1
b11011 @
b11011 M
b11100 E
1!
#570000
0!
#580000
b11100 '
b11100 <
b11100 A
b11100 V
b11100 1
b11100 @
b11100 M
b11101 E
1!
#590000
0!
#600000
b11101 '
b11101 <
b11101 A
b11101 V
b11101 1
b11101 @
b11101 M
b11110 E
1!
#610000
0!
#620000
b11110 '
b11110 <
b11110 A
b11110 V
b11110 1
b11110 @
b11110 M
b11111 E
1!
#630000
0!
#640000
b11111 '
b11111 <
b11111 A
b11111 V
b11111 1
b11111 @
b11111 M
b100000 E
1!
#650000
0!
#660000
b100000 '
b100000 <
b100000 A
b100000 V
b100000 1
b100000 @
b100000 M
b100001 E
1!
#670000
0!
#680000
b100001 '
b100001 <
b100001 A
b100001 V
b100001 1
b100001 @
b100001 M
b100010 E
1!
#690000
0!
#700000
b100010 '
b100010 <
b100010 A
b100010 V
b100010 1
b100010 @
b100010 M
b100011 E
1!
#710000
0!
#720000
b100011 '
b100011 <
b100011 A
b100011 V
b100011 1
b100011 @
b100011 M
b100100 E
1!
#730000
0!
#740000
b100100 '
b100100 <
b100100 A
b100100 V
b100100 1
b100100 @
b100100 M
b100101 E
1!
#750000
0!
#760000
b100101 '
b100101 <
b100101 A
b100101 V
b100101 1
b100101 @
b100101 M
b100110 E
1!
#770000
0!
#780000
b100110 '
b100110 <
b100110 A
b100110 V
b100110 1
b100110 @
b100110 M
b100111 E
1!
#790000
0!
#800000
b100111 '
b100111 <
b100111 A
b100111 V
b100111 1
b100111 @
b100111 M
b101000 E
1!
#810000
0!
#820000
b101000 '
b101000 <
b101000 A
b101000 V
b101000 1
b101000 @
b101000 M
b101001 E
1!
#830000
0!
#840000
b101001 '
b101001 <
b101001 A
b101001 V
b101001 1
b101001 @
b101001 M
b101010 E
1!
#850000
0!
#860000
b101010 '
b101010 <
b101010 A
b101010 V
b101010 1
b101010 @
b101010 M
b101011 E
1!
#870000
0!
#880000
b101011 '
b101011 <
b101011 A
b101011 V
b101011 1
b101011 @
b101011 M
b101100 E
1!
#890000
0!
#900000
b101100 '
b101100 <
b101100 A
b101100 V
b101100 1
b101100 @
b101100 M
b101101 E
1!
#910000
0!
#920000
b101101 '
b101101 <
b101101 A
b101101 V
b101101 1
b101101 @
b101101 M
b101110 E
1!
#930000
0!
#940000
b101110 '
b101110 <
b101110 A
b101110 V
b101110 1
b101110 @
b101110 M
b101111 E
1!
#950000
0!
#960000
b101111 '
b101111 <
b101111 A
b101111 V
b101111 1
b101111 @
b101111 M
b110000 E
1!
#970000
0!
#980000
b110000 '
b110000 <
b110000 A
b110000 V
b110000 1
b110000 @
b110000 M
b110001 E
1!
#990000
0!
#1000000
b110001 '
b110001 <
b110001 A
b110001 V
b110001 1
b110001 @
b110001 M
b110010 E
1!
#1010000
0!
#1020000
b110010 '
b110010 <
b110010 A
b110010 V
b110010 1
b110010 @
b110010 M
b110011 E
1!
#1030000
0!
#1040000
b110011 '
b110011 <
b110011 A
b110011 V
b110011 1
b110011 @
b110011 M
b110100 E
1!
#1050000
0!
#1060000
b110100 '
b110100 <
b110100 A
b110100 V
b110100 1
b110100 @
b110100 M
b110101 E
1!
#1070000
0!
#1080000
b110101 '
b110101 <
b110101 A
b110101 V
b110101 1
b110101 @
b110101 M
b110110 E
1!
#1090000
0!
#1100000
b110110 '
b110110 <
b110110 A
b110110 V
b110110 1
b110110 @
b110110 M
b110111 E
1!
#1110000
0!
#1120000
b110111 '
b110111 <
b110111 A
b110111 V
b110111 1
b110111 @
b110111 M
b111000 E
1!
#1130000
0!
#1140000
b111000 '
b111000 <
b111000 A
b111000 V
b111000 1
b111000 @
b111000 M
b111001 E
1!
#1150000
0!
#1160000
b111001 '
b111001 <
b111001 A
b111001 V
b111001 1
b111001 @
b111001 M
b111010 E
1!
#1170000
0!
#1180000
b111010 '
b111010 <
b111010 A
b111010 V
b111010 1
b111010 @
b111010 M
b111011 E
1!
#1190000
0!
#1200000
b111011 '
b111011 <
b111011 A
b111011 V
b111011 1
b111011 @
b111011 M
b111100 E
1!
#1210000
0!
#1220000
b111100 '
b111100 <
b111100 A
b111100 V
b111100 1
b111100 @
b111100 M
b111101 E
1!
#1230000
0!
#1240000
b111101 '
b111101 <
b111101 A
b111101 V
b111101 1
b111101 @
b111101 M
b111110 E
1!
#1250000
0!
#1260000
b111110 '
b111110 <
b111110 A
b111110 V
b111110 1
b111110 @
b111110 M
b111111 E
1!
#1270000
0!
#1280000
b111111 '
b111111 <
b111111 A
b111111 V
b111111 1
b111111 @
b111111 M
b1000000 E
1!
#1290000
0!
#1300000
b1000000 '
b1000000 <
b1000000 A
b1000000 V
b1000000 1
b1000000 @
b1000000 M
b1000001 E
1!
#1310000
0!
#1320000
b1000001 '
b1000001 <
b1000001 A
b1000001 V
b1000001 1
b1000001 @
b1000001 M
b1000010 E
1!
#1330000
0!
#1340000
b1000010 '
b1000010 <
b1000010 A
b1000010 V
b1000010 1
b1000010 @
b1000010 M
b1000011 E
1!
#1350000
0!
#1360000
b1000011 '
b1000011 <
b1000011 A
b1000011 V
b1000011 1
b1000011 @
b1000011 M
b1000100 E
1!
#1370000
0!
#1380000
b1000100 '
b1000100 <
b1000100 A
b1000100 V
b1000100 1
b1000100 @
b1000100 M
b1000101 E
1!
#1390000
0!
#1400000
b1000101 '
b1000101 <
b1000101 A
b1000101 V
b1000101 1
b1000101 @
b1000101 M
b1000110 E
1!
#1410000
0!
#1420000
b1000110 '
b1000110 <
b1000110 A
b1000110 V
b1000110 1
b1000110 @
b1000110 M
b1000111 E
1!
#1430000
0!
#1440000
b1000111 '
b1000111 <
b1000111 A
b1000111 V
b1000111 1
b1000111 @
b1000111 M
b1001000 E
1!
#1450000
0!
#1460000
b1001000 '
b1001000 <
b1001000 A
b1001000 V
b1001000 1
b1001000 @
b1001000 M
b1001001 E
1!
#1470000
0!
#1480000
b1001001 '
b1001001 <
b1001001 A
b1001001 V
b1001001 1
b1001001 @
b1001001 M
b1001010 E
1!
#1490000
0!
#1500000
b1001010 '
b1001010 <
b1001010 A
b1001010 V
b1001010 1
b1001010 @
b1001010 M
b1001011 E
1!
#1510000
0!
#1520000
b1001011 '
b1001011 <
b1001011 A
b1001011 V
b1001011 1
b1001011 @
b1001011 M
b1001100 E
1!
#1530000
0!
#1540000
b1001100 '
b1001100 <
b1001100 A
b1001100 V
b1001100 1
b1001100 @
b1001100 M
b1001101 E
1!
#1550000
0!
#1560000
b1001101 '
b1001101 <
b1001101 A
b1001101 V
b1001101 1
b1001101 @
b1001101 M
b1001110 E
1!
#1570000
0!
#1580000
b1001110 '
b1001110 <
b1001110 A
b1001110 V
b1001110 1
b1001110 @
b1001110 M
b1001111 E
1!
#1590000
0!
#1600000
b1001111 '
b1001111 <
b1001111 A
b1001111 V
b1001111 1
b1001111 @
b1001111 M
b1010000 E
1!
#1610000
0!
#1620000
b1010000 '
b1010000 <
b1010000 A
b1010000 V
b1010000 1
b1010000 @
b1010000 M
b1010001 E
1!
#1630000
0!
#1640000
b1010001 '
b1010001 <
b1010001 A
b1010001 V
b1010001 1
b1010001 @
b1010001 M
b1010010 E
1!
#1650000
0!
#1660000
b1010010 '
b1010010 <
b1010010 A
b1010010 V
b1010010 1
b1010010 @
b1010010 M
b1010011 E
1!
#1670000
0!
#1680000
b1010011 '
b1010011 <
b1010011 A
b1010011 V
b1010011 1
b1010011 @
b1010011 M
b1010100 E
1!
#1690000
0!
#1700000
b1010100 '
b1010100 <
b1010100 A
b1010100 V
b1010100 1
b1010100 @
b1010100 M
b1010101 E
1!
#1710000
0!
#1720000
b1010101 '
b1010101 <
b1010101 A
b1010101 V
b1010101 1
b1010101 @
b1010101 M
b1010110 E
1!
#1730000
0!
#1740000
b1010110 '
b1010110 <
b1010110 A
b1010110 V
b1010110 1
b1010110 @
b1010110 M
b1010111 E
1!
#1750000
0!
#1760000
b1010111 '
b1010111 <
b1010111 A
b1010111 V
b1010111 1
b1010111 @
b1010111 M
b1011000 E
1!
#1770000
0!
#1780000
b1011000 '
b1011000 <
b1011000 A
b1011000 V
b1011000 1
b1011000 @
b1011000 M
b1011001 E
1!
#1790000
0!
#1800000
b1011001 '
b1011001 <
b1011001 A
b1011001 V
b1011001 1
b1011001 @
b1011001 M
b1011010 E
1!
#1810000
0!
#1820000
b1011010 '
b1011010 <
b1011010 A
b1011010 V
b1011010 1
b1011010 @
b1011010 M
b1011011 E
1!
#1830000
0!
#1840000
b1011011 '
b1011011 <
b1011011 A
b1011011 V
b1011011 1
b1011011 @
b1011011 M
b1011100 E
1!
#1850000
0!
#1860000
b1011100 '
b1011100 <
b1011100 A
b1011100 V
b1011100 1
b1011100 @
b1011100 M
b1011101 E
1!
#1870000
0!
#1880000
b1011101 '
b1011101 <
b1011101 A
b1011101 V
b1011101 1
b1011101 @
b1011101 M
b1011110 E
1!
#1890000
0!
#1900000
b1011110 '
b1011110 <
b1011110 A
b1011110 V
b1011110 1
b1011110 @
b1011110 M
b1011111 E
1!
#1910000
0!
#1920000
b1011111 '
b1011111 <
b1011111 A
b1011111 V
b1011111 1
b1011111 @
b1011111 M
b1100000 E
1!
#1930000
0!
#1940000
b1100000 '
b1100000 <
b1100000 A
b1100000 V
b1100000 1
b1100000 @
b1100000 M
b1100001 E
1!
#1950000
0!
#1960000
b1100001 '
b1100001 <
b1100001 A
b1100001 V
b1100001 1
b1100001 @
b1100001 M
b1100010 E
1!
#1970000
0!
#1980000
b1100010 '
b1100010 <
b1100010 A
b1100010 V
b1100010 1
b1100010 @
b1100010 M
b1100011 E
1!
#1990000
0!
#2000000
b1100011 '
b1100011 <
b1100011 A
b1100011 V
b1100011 1
b1100011 @
b1100011 M
b1100100 E
1!
#2010000
0!
#2020000
b1100100 '
b1100100 <
b1100100 A
b1100100 V
b1100100 1
b1100100 @
b1100100 M
b1100101 E
1!
#2030000
0!
#2040000
b1100101 '
b1100101 <
b1100101 A
b1100101 V
b1100101 1
b1100101 @
b1100101 M
b1100110 E
1!
#2050000
0!
#2060000
b1100110 '
b1100110 <
b1100110 A
b1100110 V
b1100110 1
b1100110 @
b1100110 M
b1100111 E
1!
#2070000
0!
#2080000
b1100111 '
b1100111 <
b1100111 A
b1100111 V
b1100111 1
b1100111 @
b1100111 M
b1101000 E
1!
#2090000
0!
#2100000
b1101000 '
b1101000 <
b1101000 A
b1101000 V
b1101000 1
b1101000 @
b1101000 M
b1101001 E
1!
#2110000
0!
#2120000
b1101001 '
b1101001 <
b1101001 A
b1101001 V
b1101001 1
b1101001 @
b1101001 M
b1101010 E
1!
#2130000
0!
#2140000
b1101010 '
b1101010 <
b1101010 A
b1101010 V
b1101010 1
b1101010 @
b1101010 M
b1101011 E
1!
#2150000
0!
#2160000
b1101011 '
b1101011 <
b1101011 A
b1101011 V
b1101011 1
b1101011 @
b1101011 M
b1101100 E
1!
#2170000
0!
#2180000
b1101100 '
b1101100 <
b1101100 A
b1101100 V
b1101100 1
b1101100 @
b1101100 M
b1101101 E
1!
#2190000
0!
#2200000
b1101101 '
b1101101 <
b1101101 A
b1101101 V
b1101101 1
b1101101 @
b1101101 M
b1101110 E
1!
#2210000
0!
#2220000
b1101110 '
b1101110 <
b1101110 A
b1101110 V
b1101110 1
b1101110 @
b1101110 M
b1101111 E
1!
#2230000
0!
#2240000
b1101111 '
b1101111 <
b1101111 A
b1101111 V
b1101111 1
b1101111 @
b1101111 M
b1110000 E
1!
#2250000
0!
#2260000
b1110000 '
b1110000 <
b1110000 A
b1110000 V
b1110000 1
b1110000 @
b1110000 M
b1110001 E
1!
#2270000
0!
#2280000
b1110001 '
b1110001 <
b1110001 A
b1110001 V
b1110001 1
b1110001 @
b1110001 M
b1110010 E
1!
#2290000
0!
#2300000
b1110010 '
b1110010 <
b1110010 A
b1110010 V
b1110010 1
b1110010 @
b1110010 M
b1110011 E
1!
#2310000
0!
#2320000
b1110011 '
b1110011 <
b1110011 A
b1110011 V
b1110011 1
b1110011 @
b1110011 M
b1110100 E
1!
#2330000
0!
#2340000
b1110100 '
b1110100 <
b1110100 A
b1110100 V
b1110100 1
b1110100 @
b1110100 M
b1110101 E
1!
#2350000
0!
#2360000
b1110101 '
b1110101 <
b1110101 A
b1110101 V
b1110101 1
b1110101 @
b1110101 M
b1110110 E
1!
#2370000
0!
#2380000
b1110110 '
b1110110 <
b1110110 A
b1110110 V
b1110110 1
b1110110 @
b1110110 M
b1110111 E
1!
#2390000
0!
#2400000
b1110111 '
b1110111 <
b1110111 A
b1110111 V
b1110111 1
b1110111 @
b1110111 M
b1111000 E
1!
#2410000
0!
#2420000
b1111000 '
b1111000 <
b1111000 A
b1111000 V
b1111000 1
b1111000 @
b1111000 M
b1111001 E
1!
#2430000
0!
#2440000
b1111001 '
b1111001 <
b1111001 A
b1111001 V
b1111001 1
b1111001 @
b1111001 M
b1111010 E
1!
#2450000
0!
#2460000
b1111010 '
b1111010 <
b1111010 A
b1111010 V
b1111010 1
b1111010 @
b1111010 M
b1111011 E
1!
#2470000
0!
#2480000
b1111011 '
b1111011 <
b1111011 A
b1111011 V
b1111011 1
b1111011 @
b1111011 M
b1111100 E
1!
#2490000
0!
#2500000
b1111100 '
b1111100 <
b1111100 A
b1111100 V
b1111100 1
b1111100 @
b1111100 M
b1111101 E
1!
#2510000
0!
#2520000
b1111101 '
b1111101 <
b1111101 A
b1111101 V
b1111101 1
b1111101 @
b1111101 M
b1111110 E
1!
#2530000
0!
#2540000
b1111110 '
b1111110 <
b1111110 A
b1111110 V
b1111110 1
b1111110 @
b1111110 M
b1111111 E
1!
#2550000
0!
#2560000
b1111111 '
b1111111 <
b1111111 A
b1111111 V
b1111111 1
b1111111 @
b1111111 M
b10000000 E
1!
#2570000
0!
#2580000
b10000000 '
b10000000 <
b10000000 A
b10000000 V
b10000000 1
b10000000 @
b10000000 M
b10000001 E
1!
#2590000
0!
#2600000
b10000001 '
b10000001 <
b10000001 A
b10000001 V
b10000001 1
b10000001 @
b10000001 M
b10000010 E
1!
#2610000
0!
#2620000
b10000010 '
b10000010 <
b10000010 A
b10000010 V
b10000010 1
b10000010 @
b10000010 M
b10000011 E
1!
#2630000
0!
#2640000
b10000011 '
b10000011 <
b10000011 A
b10000011 V
b10000011 1
b10000011 @
b10000011 M
b10000100 E
1!
#2650000
0!
#2660000
b10000100 '
b10000100 <
b10000100 A
b10000100 V
b10000100 1
b10000100 @
b10000100 M
b10000101 E
1!
#2670000
0!
#2680000
b10000101 '
b10000101 <
b10000101 A
b10000101 V
b10000101 1
b10000101 @
b10000101 M
b10000110 E
1!
#2690000
0!
#2700000
b10000110 '
b10000110 <
b10000110 A
b10000110 V
b10000110 1
b10000110 @
b10000110 M
b10000111 E
1!
#2710000
0!
#2720000
b10000111 '
b10000111 <
b10000111 A
b10000111 V
b10000111 1
b10000111 @
b10000111 M
b10001000 E
1!
#2730000
0!
#2740000
b10001000 '
b10001000 <
b10001000 A
b10001000 V
b10001000 1
b10001000 @
b10001000 M
b10001001 E
1!
#2750000
0!
#2760000
b10001001 '
b10001001 <
b10001001 A
b10001001 V
b10001001 1
b10001001 @
b10001001 M
b10001010 E
1!
#2770000
0!
#2780000
b10001010 '
b10001010 <
b10001010 A
b10001010 V
b10001010 1
b10001010 @
b10001010 M
b10001011 E
1!
#2790000
0!
#2800000
b10001011 '
b10001011 <
b10001011 A
b10001011 V
b10001011 1
b10001011 @
b10001011 M
b10001100 E
1!
#2810000
0!
#2820000
b10001100 '
b10001100 <
b10001100 A
b10001100 V
b10001100 1
b10001100 @
b10001100 M
b10001101 E
1!
#2830000
0!
#2840000
b10001101 '
b10001101 <
b10001101 A
b10001101 V
b10001101 1
b10001101 @
b10001101 M
b10001110 E
1!
#2850000
0!
#2860000
b10001110 '
b10001110 <
b10001110 A
b10001110 V
b10001110 1
b10001110 @
b10001110 M
b10001111 E
1!
#2870000
0!
#2880000
b10001111 '
b10001111 <
b10001111 A
b10001111 V
b10001111 1
b10001111 @
b10001111 M
b10010000 E
1!
#2890000
0!
#2900000
b10010000 '
b10010000 <
b10010000 A
b10010000 V
b10010000 1
b10010000 @
b10010000 M
b10010001 E
1!
#2910000
0!
#2920000
b10010001 '
b10010001 <
b10010001 A
b10010001 V
b10010001 1
b10010001 @
b10010001 M
b10010010 E
1!
#2930000
0!
#2940000
b10010010 '
b10010010 <
b10010010 A
b10010010 V
b10010010 1
b10010010 @
b10010010 M
b10010011 E
1!
#2950000
0!
#2960000
b10010011 '
b10010011 <
b10010011 A
b10010011 V
b10010011 1
b10010011 @
b10010011 M
b10010100 E
1!
#2970000
0!
#2980000
b10010100 '
b10010100 <
b10010100 A
b10010100 V
b10010100 1
b10010100 @
b10010100 M
b10010101 E
1!
#2990000
0!
#3000000
b10010101 '
b10010101 <
b10010101 A
b10010101 V
b10010101 1
b10010101 @
b10010101 M
b10010110 E
1!
#3010000
0!
#3020000
b10010110 '
b10010110 <
b10010110 A
b10010110 V
b10010110 1
b10010110 @
b10010110 M
b10010111 E
1!
#3030000
0!
#3040000
b10010111 '
b10010111 <
b10010111 A
b10010111 V
b10010111 1
b10010111 @
b10010111 M
b10011000 E
1!
#3050000
0!
#3060000
b10011000 '
b10011000 <
b10011000 A
b10011000 V
b10011000 1
b10011000 @
b10011000 M
b10011001 E
1!
#3070000
0!
#3080000
b10011001 '
b10011001 <
b10011001 A
b10011001 V
b10011001 1
b10011001 @
b10011001 M
b10011010 E
1!
#3090000
0!
#3100000
b10011010 '
b10011010 <
b10011010 A
b10011010 V
b10011010 1
b10011010 @
b10011010 M
b10011011 E
1!
#3110000
0!
#3120000
b10011011 '
b10011011 <
b10011011 A
b10011011 V
b10011011 1
b10011011 @
b10011011 M
b10011100 E
1!
#3130000
0!
#3140000
b10011100 '
b10011100 <
b10011100 A
b10011100 V
b10011100 1
b10011100 @
b10011100 M
b10011101 E
1!
#3150000
0!
#3160000
b10011101 '
b10011101 <
b10011101 A
b10011101 V
b10011101 1
b10011101 @
b10011101 M
b10011110 E
1!
#3170000
0!
#3180000
b10011110 '
b10011110 <
b10011110 A
b10011110 V
b10011110 1
b10011110 @
b10011110 M
b10011111 E
1!
#3190000
0!
#3200000
b10011111 '
b10011111 <
b10011111 A
b10011111 V
b10011111 1
b10011111 @
b10011111 M
b10100000 E
1!
#3210000
0!
#3220000
b10100000 '
b10100000 <
b10100000 A
b10100000 V
b10100000 1
b10100000 @
b10100000 M
b10100001 E
1!
#3230000
0!
#3240000
b10100001 '
b10100001 <
b10100001 A
b10100001 V
b10100001 1
b10100001 @
b10100001 M
b10100010 E
1!
#3250000
0!
#3260000
b10100010 '
b10100010 <
b10100010 A
b10100010 V
b10100010 1
b10100010 @
b10100010 M
b10100011 E
1!
#3270000
0!
#3280000
b10100011 '
b10100011 <
b10100011 A
b10100011 V
b10100011 1
b10100011 @
b10100011 M
b10100100 E
1!
#3290000
0!
#3300000
b10100100 '
b10100100 <
b10100100 A
b10100100 V
b10100100 1
b10100100 @
b10100100 M
b10100101 E
1!
#3310000
0!
#3320000
b10100101 '
b10100101 <
b10100101 A
b10100101 V
b10100101 1
b10100101 @
b10100101 M
b10100110 E
1!
#3330000
0!
#3340000
b10100110 '
b10100110 <
b10100110 A
b10100110 V
b10100110 1
b10100110 @
b10100110 M
b10100111 E
1!
#3350000
0!
#3360000
b10100111 '
b10100111 <
b10100111 A
b10100111 V
b10100111 1
b10100111 @
b10100111 M
b10101000 E
1!
#3370000
0!
#3380000
b10101000 '
b10101000 <
b10101000 A
b10101000 V
b10101000 1
b10101000 @
b10101000 M
b10101001 E
1!
#3390000
0!
#3400000
b10101001 '
b10101001 <
b10101001 A
b10101001 V
b10101001 1
b10101001 @
b10101001 M
b10101010 E
1!
#3410000
0!
#3420000
b10101010 '
b10101010 <
b10101010 A
b10101010 V
b10101010 1
b10101010 @
b10101010 M
b10101011 E
1!
#3430000
0!
#3440000
b10101011 '
b10101011 <
b10101011 A
b10101011 V
b10101011 1
b10101011 @
b10101011 M
b10101100 E
1!
#3450000
0!
#3460000
b10101100 '
b10101100 <
b10101100 A
b10101100 V
b10101100 1
b10101100 @
b10101100 M
b10101101 E
1!
#3470000
0!
#3480000
b10101101 '
b10101101 <
b10101101 A
b10101101 V
b10101101 1
b10101101 @
b10101101 M
b10101110 E
1!
#3490000
0!
#3500000
b10101110 '
b10101110 <
b10101110 A
b10101110 V
b10101110 1
b10101110 @
b10101110 M
b10101111 E
1!
#3510000
0!
#3520000
b10101111 '
b10101111 <
b10101111 A
b10101111 V
b10101111 1
b10101111 @
b10101111 M
b10110000 E
1!
#3530000
0!
#3540000
b10110000 '
b10110000 <
b10110000 A
b10110000 V
b10110000 1
b10110000 @
b10110000 M
b10110001 E
1!
#3550000
0!
#3560000
b10110001 '
b10110001 <
b10110001 A
b10110001 V
b10110001 1
b10110001 @
b10110001 M
b10110010 E
1!
#3570000
0!
#3580000
b10110010 '
b10110010 <
b10110010 A
b10110010 V
b10110010 1
b10110010 @
b10110010 M
b10110011 E
1!
#3590000
0!
#3600000
b10110011 '
b10110011 <
b10110011 A
b10110011 V
b10110011 1
b10110011 @
b10110011 M
b10110100 E
1!
#3610000
0!
#3620000
b10110100 '
b10110100 <
b10110100 A
b10110100 V
b10110100 1
b10110100 @
b10110100 M
b10110101 E
1!
#3630000
0!
#3640000
b10110101 '
b10110101 <
b10110101 A
b10110101 V
b10110101 1
b10110101 @
b10110101 M
b10110110 E
1!
#3650000
0!
#3660000
b10110110 '
b10110110 <
b10110110 A
b10110110 V
b10110110 1
b10110110 @
b10110110 M
b10110111 E
1!
#3670000
0!
#3680000
b10110111 '
b10110111 <
b10110111 A
b10110111 V
b10110111 1
b10110111 @
b10110111 M
b10111000 E
1!
#3690000
0!
#3700000
b10111000 '
b10111000 <
b10111000 A
b10111000 V
b10111000 1
b10111000 @
b10111000 M
b10111001 E
1!
#3710000
0!
